-0-0-                                                                                                                          
000 000 000 000 000 000 000 000 000 000 000 000 000 000 000 000 000 000 000 000 000 000 000 000 000 000 000 000 000 000 000 000
000 000 000 000 000 000 000 000 000 000 000 000 000 000 000 000 000 000 000 000 000 000 000 000 000 000 000 000 000 000 000 000
000 000 000 000 000 000 000 000 000 000 000 000 000 000 000 000 000 000 000 000 000 000 000 000 000 000 000 000 000 000 000 000
000 000 000 000 000 000 000 000 000 000 000 000 000 000 000 000 000 000 000 000 000 000 000 000 000 000 000 000 000 000 000 000
000 000 000 000 000 000 000 000 000 000 000 000 000 000 000 000 000 000 000 000 000 000 000 000 000 000 000 000 000 000 000 000
000 000 000 000 000 000 000 000 000 000 000 000 000 000 000 000 000 000 000 000 000 000 000 000 000 000 000 000 000 000 000 000
000 000 000 000 000 000 000 000 000 000 000 000 000 000 000 000 000 000 000 000 000 000 000 000 000 000 000 000 000 000 000 000
000 000 000 000 000 000 000 000 000 000 000 000 000 000 000 000 000 000 000 000 000 000 000 000 000 000 000 000 000 000 000 000
000 000 000 000 000 000 000 000 000 000 000 000 000 000 000 000 000 000 000 000 000 000 000 000 000 000 000 000 000 000 000 000
000 000 000 000 000 000 000 000 000 000 000 000 000 000 000 000 000 000 000 000 000 000 000 000 000 000 000 000 000 000 000 000
000 000 000 000 000 000 000 000 000 000 000 000 000 000 000 000 000 000 000 000 000 000 000 000 000 000 000 000 000 000 000 000
000 000 000 000 000 000 000 000 000 000 000 000 000 000 000 000 000 000 000 000 000 000 000 000 000 000 000 000 000 000 000 000
000 000 000 000 000 000 000 000 000 000 000 000 000 000 000 000 000 000 000 000 000 000 000 000 000 000 000 000 000 000 000 000
000 000 000 000 000 000 000 000 000 000 000 000 000 000 000 000 000 000 000 000 000 000 000 000 000 000 000 000 000 000 000 000
000 000 000 000 000 000 000 000 000 000 000 000 000 000 000 000 000 000 000 000 000 000 000 000 000 000 000 000 000 000 000 000
000 000 000 000 000 000 000 000 000 000 000 000 000 000 000 000 000 000 000 000 000 000 000 000 000 000 000 000 000 000 000 000
000 000 000 000 000 000 000 000 000 000 000 000 000 000 000 000 000 000 000 000 000 000 000 000 000 000 000 000 000 000 000 000
000 000 000 000 000 000 000 000 000 000 000 000 000 000 000 000 000 000 000 000 000 000 000 000 000 000 000 000 000 000 000 000
000 000 000 000 000 000 000 000 000 000 000 000 000 000 000 000 000 000 000 000 000 000 000 000 000 000 000 000 000 000 000 000
000 000 000 000 000 000 000 000 000 000 000 000 000 000 000 000 000 000 000 000 000 000 000 000 000 000 000 000 000 000 000 000
000 000 000 000 000 000 000 000 000 000 000 000 000 000 000 000 000 000 000 000 000 000 000 000 000 000 000 000 000 000 000 000
000 000 000 000 000 000 000 000 000 000 000 000 000 000 000 000 000 000 000 000 000 000 000 000 000 000 000 000 000 000 000 000
-0-1-                                                                                                                          
000 000 000 000 000 000 000 000 000 000 000 000 000 000 000 000 000 000 000 000 000 000 000 000 000 000 000 000 000 000 006 012
000 000 000 000 000 000 000 000 000 000 000 000 000 000 000 000 000 000 000 000 000 000 000 000 000 000 000 000 000 000 011 010
000 000 000 000 000 113 000 000 000 000 000 000 113 000 000 000 000 000 000 000 113 114 000 000 000 000 000 000 000 000 006 007
000 000 000 000 000 000 000 000 000 000 000 113 000 000 000 000 000 000 000 000 115 116 000 000 000 000 113 000 000 000 011 010
000 113 000 000 000 000 000 000 000 000 000 000 000 000 000 000 000 000 000 000 000 000 000 000 000 000 000 000 000 000 128 000
000 000 000 113 000 000 000 000 000 000 000 000 000 000 000 113 000 000 000 000 000 000 000 000 000 000 000 000 000 000 128 000
000 000 000 000 000 000 000 000 000 000 000 000 000 000 000 000 000 000 000 000 000 000 000 000 000 000 000 000 000 000 128 000
000 000 000 000 000 000 000 000 000 000 000 000 000 000 000 000 000 000 000 000 000 000 000 000 000 000 000 000 000 000 128 000
000 000 000 000 000 000 000 000 000 000 000 000 000 000 000 000 000 000 000 000 000 000 000 000 000 000 000 000 000 000 006 007
000 000 000 000 000 000 000 000 000 000 000 000 000 000 000 000 000 000 000 000 000 000 000 000 000 000 000 000 000 000 011 010
000 000 000 000 000 000 000 000 000 000 000 000 000 000 000 000 000 000 000 000 000 000 000 000 000 000 000 000 000 000 006 007
000 000 000 000 000 000 000 000 000 000 000 000 000 000 000 000 000 000 000 000 000 000 000 000 000 000 000 000 000 000 011 010
000 000 000 000 000 000 000 000 000 000 000 000 000 000 000 000 000 000 000 000 000 000 000 000 000 000 000 000 000 000 006 007
000 000 000 000 000 000 000 000 000 000 000 000 000 000 000 000 000 000 000 000 000 000 000 000 000 000 000 000 000 000 011 010
000 000 000 000 000 000 000 000 000 000 000 000 000 000 000 000 000 000 000 000 000 000 000 000 000 000 000 000 000 000 006 007
000 000 000 000 000 000 000 000 000 000 000 000 000 000 000 000 000 000 000 000 000 000 000 000 000 000 000 000 000 000 011 010
109 109 109 109 000 000 000 000 000 000 000 000 000 000 000 000 000 000 000 000 000 000 000 000 000 000 000 000 000 109 006 007
109 109 109 109 109 109 000 000 000 000 000 000 000 000 000 000 000 000 000 000 000 000 000 000 000 000 000 000 000 109 011 010
110 110 109 110 110 110 110 000 000 000 000 000 000 000 000 000 000 000 000 000 000 000 000 000 000 000 000 000 109 109 006 012
110 110 110 110 110 110 110 110 109 000 000 000 000 000 000 000 000 000 000 000 000 000 000 000 000 000 000 000 109 109 011 010
110 110 110 110 110 110 110 110 110 109 000 000 000 000 000 000 000 000 000 000 000 000 000 000 000 000 000 000 109 109 006 007
110 110 110 110 110 110 110 110 110 109 000 000 000 000 000 000 000 000 000 000 000 000 000 000 000 000 000 000 000 109 011 010
-0-2-                                                                                                                          
007 008 019 019 019 019 019 019 019 019 019 019 019 019 007 008 000 000 000 000 000 000 000 000 000 000 000 000 000 000 000 000
010 013 000 000 000 301 302 000 000 000 000 000 000 000 010 013 000 000 000 000 000 000 000 000 000 000 000 000 000 000 000 000
007 008 000 000 000 303 304 000 000 000 000 000 000 000 007 008 000 000 000 000 000 000 000 000 000 000 000 000 000 000 000 000
010 013 000 000 000 000 000 000 000 000 000 000 000 000 010 013 000 000 000 000 000 000 000 000 000 000 000 000 000 000 000 000
000 000 000 000 000 000 000 000 000 000 000 000 000 000 007 008 000 000 000 000 000 000 000 000 000 000 000 000 000 000 000 000
000 000 000 000 000 000 000 000 000 000 000 000 000 000 010 013 019 019 019 019 019 019 019 019 019 019 019 019 019 019 019 019
000 000 000 000 000 000 000 000 000 000 000 000 000 000 007 008 017 017 017 017 017 017 017 017 017 018 017 017 018 017 018 017
000 000 000 000 000 000 000 000 000 000 000 000 401 402 010 013 017 017 017 018 017 017 017 017 017 017 017 017 017 017 017 017
007 008 000 000 000 000 000 000 000 000 000 000 403 404 007 008 017 017 017 017 017 017 017 018 017 017 017 017 017 017 017 017
010 009 014 015 014 015 014 015 000 000 000 000 014 015 010 013 017 017 017 017 017 017 017 017 017 017 017 017 017 017 017 017
007 008 000 000 000 000 000 000 000 000 000 000 000 000 007 008 007 008 007 008 007 008 007 008 007 008 007 008 007 008 007 008
010 013 000 000 000 000 000 000 016 000 000 000 000 000 000 000 000 000 000 000 000 000 000 000 000 000 000 000 000 000 000 000
007 008 000 000 000 000 000 000 000 000 000 000 000 000 000 000 000 000 000 000 000 000 000 000 000 000 000 000 000 000 000 000
010 013 000 000 000 000 000 000 000 016 000 000 000 000 000 000 000 000 000 000 000 000 000 000 000 000 000 000 000 000 000 000
007 008 000 000 000 000 000 000 000 000 000 000 000 000 000 000 000 000 000 000 000 000 000 000 000 000 000 000 000 000 000 000
010 013 000 000 000 000 000 000 000 000 016 000 000 000 000 000 000 000 000 000 000 000 000 000 000 000 000 000 000 000 000 000
007 008 000 000 000 000 000 000 000 000 000 000 000 000 000 000 000 000 000 000 000 000 000 000 000 000 000 000 000 000 000 000
010 013 000 000 000 000 000 000 000 000 000 016 000 000 000 000 000 000 000 000 000 000 000 000 000 000 000 000 000 000 000 000
007 008 000 000 000 000 000 000 000 000 000 000 000 000 000 000 000 000 000 000 000 000 000 000 000 000 000 000 000 000 000 000
010 013 000 000 000 000 000 000 000 000 000 000 000 000 000 000 000 000 000 000 000 000 000 000 000 000 000 000 000 000 000 000
007 008 000 000 000 000 007 008 007 008 007 008 007 008 007 008 007 008 007 008 007 008 007 008 007 008 007 008 007 008 007 008
010 013 016 000 000 000 010 009 010 009 010 009 010 009 010 009 010 009 010 009 010 009 010 009 010 009 010 009 010 009 010 009
-0-3-                                                                                                                          
000 000 000 000 000 000 000 000 000 000 000 000 000 000 000 000 000 000 000 000 000 000 000 000 000 000 000 000 000 000 000 000
000 000 000 000 000 000 000 000 000 000 000 000 000 000 000 000 000 000 000 000 000 000 000 000 000 000 000 000 000 000 000 000
000 000 000 000 000 000 000 000 000 000 000 000 000 000 000 000 000 000 000 000 000 000 000 000 000 000 000 000 000 000 000 000
000 000 000 000 000 000 000 000 000 000 000 000 000 000 000 000 000 000 000 000 000 000 000 000 000 000 000 000 000 000 000 000
000 000 000 000 000 000 000 000 000 000 000 000 000 000 000 000 000 000 000 000 000 000 000 000 000 000 000 000 000 000 000 000
019 019 019 019 019 019 019 019 019 019 019 019 019 019 019 019 019 019 019 019 019 019 019 019 019 019 019 019 019 019 019 019
018 017 017 017 017 017 017 017 017 017 017 017 017 017 017 017 017 017 017 017 017 017 017 017 017 017 017 017 018 017 017 017
017 017 017 017 017 017 017 017 017 017 017 017 017 017 017 017 017 017 017 017 017 018 017 017 017 017 017 017 017 017 017 017
017 017 017 017 018 017 017 017 017 017 017 017 017 017 017 017 017 017 017 017 017 017 017 017 017 017 017 017 017 017 018 017
017 017 017 017 017 017 017 017 017 017 017 017 017 017 017 017 017 017 017 017 017 017 017 017 017 017 017 017 017 017 017 017
007 008 007 008 007 008 007 008 007 008 007 008 007 008 007 008 007 008 007 008 007 008 007 008 007 008 007 008 007 008 007 008
000 000 000 000 000 000 000 000 000 000 000 000 000 000 000 000 000 000 000 000 000 000 000 000 000 000 000 000 000 000 010 009
000 000 000 000 000 000 000 000 000 000 000 000 000 000 000 000 000 000 000 000 000 000 000 000 000 000 000 000 000 000 007 008
000 000 000 000 000 000 000 000 000 000 000 000 000 000 000 000 000 000 000 000 000 000 000 000 000 000 133 134 000 000 010 009
000 000 000 000 000 000 000 000 000 000 000 000 000 000 000 000 000 000 000 000 000 000 000 000 000 000 133 134 000 000 007 008
000 000 000 000 000 000 000 000 000 000 000 000 000 000 000 000 000 000 000 000 000 000 000 000 000 000 000 000 000 000 010 009
000 000 000 000 000 000 000 000 000 000 000 000 000 000 000 000 000 000 317 318 023 024 000 000 000 000 000 000 000 000 007 008
000 000 000 000 000 000 000 000 000 000 000 000 000 000 000 000 000 000 319 320 025 026 000 000 000 000 000 000 000 000 010 009
000 000 000 000 000 000 000 000 000 000 000 000 000 000 023 024 000 000 023 024 023 024 000 000 000 000 000 000 409 410 007 008
000 000 000 000 000 000 000 000 000 000 000 000 000 000 025 026 000 000 025 026 025 026 000 000 000 000 000 000 411 412 010 009
007 008 007 008 007 008 007 008 007 008 007 008 007 008 007 008 007 008 007 008 007 008 007 008 007 008 007 008 007 008 007 008
010 009 010 009 010 009 010 009 010 009 010 009 010 009 010 009 010 009 010 009 010 009 010 009 010 009 010 009 010 009 010 009
-0-4-                                                                                                                          
110 110 110 110 110 110 110 110 110 000 000 000 000 000 000 000 000 000 000 000 000 000 110 110 110 110 110 110 110 110 110 110
110 110 110 110 110 110 110 110 000 000 000 000 000 000 000 000 000 000 000 000 000 000 000 110 110 110 110 110 110 110 110 110
110 110 110 110 110 110 110 109 000 000 000 000 000 000 000 000 000 000 000 000 000 000 000 110 110 110 110 110 110 109 110 110
109 110 110 109 110 109 109 000 000 000 000 113 000 000 000 000 000 113 114 000 000 000 000 000 110 110 109 110 109 109 109 109
109 109 109 109 109 109 000 000 000 000 113 000 000 000 000 000 000 115 116 000 000 000 000 000 000 109 109 109 109 109 109 109
109 109 109 109 000 000 000 000 000 000 000 000 000 000 000 000 000 000 000 000 000 000 000 000 000 000 109 109 102 103 109 000
000 104 105 000 000 000 000 000 000 000 000 000 000 000 000 000 000 000 000 000 000 000 113 000 000 000 000 000 104 105 000 000
000 102 103 000 000 000 000 000 000 000 000 000 000 000 000 113 000 000 000 000 000 000 000 000 000 000 000 000 102 103 000 000
000 104 107 108 000 000 000 000 000 000 000 000 000 000 000 000 000 000 000 000 000 000 000 000 000 000 000 112 106 105 000 000
000 102 103 000 000 000 000 000 000 000 000 000 000 000 000 000 000 000 000 000 000 000 000 000 000 000 000 000 102 103 000 000
000 104 105 000 000 000 000 000 000 000 000 000 000 000 000 000 000 000 000 000 000 000 000 000 000 000 000 000 104 105 000 000
112 106 103 000 000 000 000 000 000 000 000 000 000 000 000 000 104 000 000 000 000 000 000 000 000 000 000 000 102 107 108 000
000 104 105 000 000 000 000 000 000 000 000 000 000 000 000 000 102 000 000 000 000 000 000 000 000 000 000 000 104 105 000 000
000 102 103 000 000 000 000 000 000 000 000 000 000 000 000 000 104 000 000 000 000 000 000 000 000 000 000 112 106 103 000 000
000 104 125 000 000 000 000 000 000 000 000 000 000 000 000 000 102 000 000 000 000 000 000 000 000 000 000 000 104 105 000 000
000 102 103 000 000 000 000 000 000 000 000 000 000 000 000 000 104 000 000 000 000 000 000 000 000 000 000 000 102 125 000 000
000 104 105 000 000 000 000 000 000 000 000 000 000 000 000 000 102 000 000 000 000 000 000 000 000 000 000 000 104 105 000 000
000 102 103 000 000 000 000 000 000 000 000 000 000 059 060 059 060 059 060 059 000 000 000 000 000 000 000 000 102 103 000 000
000 104 105 000 000 000 000 000 000 000 000 000 000 027 027 027 027 027 027 027 000 000 000 000 000 000 000 000 104 105 000 000
101 102 103 101 000 000 000 000 000 000 000 000 000 027 027 027 027 027 027 027 000 000 000 000 000 000 000 000 102 103 000 101
003 004 003 004 003 004 003 004 003 004 003 004 003 004 003 004 003 004 003 004 003 004 003 004 003 004 003 004 003 004 003 004
001 002 001 002 001 002 001 002 001 002 001 002 001 002 001 002 001 002 001 002 001 002 001 002 001 002 001 002 001 002 001 002
-1-0-                                                                                                                          
110 110 110 110 110 110 110 110 110 110 110 110 110 110 110 110 110 110 110 110 110 110 110 110 110 110 110 110 110 110 110 110
110 110 110 110 110 110 110 110 110 110 110 110 110 110 110 110 110 110 110 110 110 110 110 110 110 110 110 110 110 110 110 110
110 110 110 110 110 110 110 109 109 109 109 110 110 110 110 109 109 109 110 110 110 110 110 110 110 110 110 110 110 109 110 110
110 110 110 110 110 110 109 109 109 109 109 109 109 109 109 109 109 109 109 109 109 109 110 110 110 110 110 110 109 109 109 109
110 109 109 109 109 109 109 104 105 109 109 109 109 109 109 109 109 000 109 109 109 109 109 109 000 109 109 109 109 109 109 000
109 109 109 109 109 109 000 102 103 000 000 109 109 109 109 104 105 109 000 109 109 109 109 000 109 109 109 109 109 109 000 000
000 104 105 000 000 000 112 106 125 000 109 109 109 109 000 102 103 000 109 109 109 109 109 109 109 109 109 109 109 109 109 000
000 102 103 000 000 000 000 102 103 000 000 109 109 109 109 102 107 108 000 000 109 109 109 109 109 109 109 104 105 000 000 000
000 104 107 108 000 000 112 106 105 000 000 000 104 105 000 102 103 000 000 000 000 109 109 000 000 000 000 104 105 000 000 109
000 102 103 000 000 000 000 102 103 000 000 000 102 103 112 106 105 000 000 000 000 109 000 000 000 000 112 106 103 000 000 000
000 104 105 000 000 000 000 104 107 108 000 000 104 105 000 102 103 000 000 000 000 000 000 109 109 000 000 104 105 000 000 000
112 106 103 000 109 000 000 102 103 000 000 000 102 107 108 104 105 000 000 109 000 000 000 000 109 109 109 102 107 108 000 000
000 104 105 000 000 109 000 111 105 000 000 000 104 105 000 102 103 000 000 000 000 000 000 000 000 000 000 104 105 000 109 000
000 102 103 000 000 000 000 102 103 000 000 112 106 103 000 102 107 108 000 000 000 000 000 000 000 000 112 106 103 000 000 000
000 104 125 000 000 000 000 104 105 000 000 000 104 125 000 104 125 000 000 000 000 000 000 000 000 000 000 104 105 000 000 000
000 102 103 000 000 000 000 102 103 000 000 000 102 103 000 102 103 000 000 000 000 000 000 000 000 000 000 102 125 000 000 000
000 104 105 000 000 000 000 104 105 000 000 000 104 105 000 104 105 000 000 000 000 000 000 000 000 000 000 104 105 000 000 000
000 102 103 000 000 000 000 102 103 000 000 000 102 103 000 102 103 000 000 000 000 000 000 101 000 000 000 102 103 000 000 000
000 104 105 000 000 000 000 104 105 000 000 000 104 105 000 104 105 000 000 000 000 000 003 004 003 004 000 104 105 000 000 000
101 102 103 101 000 000 000 102 103 000 101 000 102 103 000 102 103 000 101 000 003 004 001 002 001 002 000 102 103 000 101 101
003 004 003 004 003 004 003 004 003 004 003 004 003 004 003 004 003 004 003 004 001 002 001 002 001 002 003 004 003 004 003 004
001 002 001 002 001 002 001 002 001 002 001 002 001 002 001 002 001 002 001 002 001 002 001 002 001 002 001 002 001 002 001 002
-1-1-                                                                                                                          
110 110 110 110 110 110 110 110 110 110 000 000 000 000 000 000 000 000 000 000 000 000 000 000 000 000 000 000 000 006 007 008
110 110 110 110 110 110 110 110 110 110 000 000 000 000 000 000 000 000 000 000 000 000 000 000 000 000 000 000 000 011 010 009
110 110 110 110 110 110 110 110 110 109 000 000 000 000 000 000 000 000 000 000 113 114 000 000 000 000 000 000 000 006 012 008
110 110 110 110 110 110 110 110 110 109 000 000 000 113 000 000 000 000 000 000 115 116 000 000 000 000 113 000 000 011 010 009
110 110 109 110 110 110 110 110 109 000 000 000 000 000 000 000 000 000 000 000 000 000 000 000 000 000 000 000 000 006 007 008
109 109 109 109 110 110 109 109 000 000 000 000 000 000 000 000 000 000 000 000 000 000 000 000 000 000 000 000 000 011 010 009
109 109 109 109 109 109 109 000 000 000 000 000 000 000 000 000 113 000 000 000 000 000 000 000 000 000 000 000 000 006 007 008
000 109 109 109 109 000 000 000 000 000 000 000 000 000 000 000 000 000 000 000 000 000 000 000 000 000 000 000 000 011 010 009
109 000 104 105 000 000 000 000 000 000 000 000 000 000 000 000 000 000 000 000 000 000 000 000 000 000 000 000 000 006 007 008
000 000 102 103 000 000 000 000 000 000 000 000 000 000 000 000 000 000 000 000 000 000 000 000 000 000 000 000 000 011 010 009
000 112 106 105 000 000 000 000 000 000 000 000 000 000 000 000 000 000 000 000 000 000 000 000 000 000 000 000 000 006 012 008
109 000 102 103 000 000 000 000 000 000 000 000 000 000 000 000 000 000 000 000 000 000 000 000 000 000 000 000 000 011 010 009
109 109 104 107 108 000 000 000 000 000 000 000 000 000 000 000 000 000 000 000 000 000 000 000 000 000 000 000 000 006 007 008
000 000 102 103 000 000 000 000 000 000 000 000 000 000 000 000 000 000 000 000 000 000 000 000 000 000 000 000 000 011 010 009
000 000 111 105 000 000 000 000 000 000 000 000 000 000 000 000 000 000 000 000 000 000 000 000 000 000 000 000 000 000 000 000
000 109 102 103 000 000 000 000 000 000 000 000 000 000 000 121 122 000 000 000 000 121 122 000 000 000 000 000 000 000 000 000
000 000 104 105 000 000 000 000 000 000 000 117 118 121 122 000 000 000 000 000 000 117 118 000 000 000 000 000 000 000 000 000
000 000 102 103 000 000 000 000 000 117 118 119 120 123 124 000 117 118 121 122 000 119 120 117 118 000 000 000 000 000 000 000
000 000 104 105 000 000 000 000 000 119 120 000 000 000 000 000 119 120 123 124 000 000 000 119 120 000 000 000 000 006 007 008
101 000 102 103 000 101 000 000 000 000 000 000 000 000 000 000 000 000 000 000 000 000 000 000 000 101 000 000 006 007 008 007
003 004 003 004 003 004 003 004 003 004 000 000 003 004 003 004 000 000 003 004 000 000 003 004 003 004 003 004 003 004 003 004
001 002 001 002 001 002 001 002 001 002 005 005 001 002 001 002 005 005 001 002 005 005 001 002 001 002 001 002 001 002 001 002
-1-2-                                                                                                                          
007 008 000 000 000 000 007 008 007 008 007 008 007 008 007 008 007 008 007 008 007 008 007 008 007 008 007 008 007 008 007 008
010 013 000 000 000 000 000 000 000 000 000 000 000 000 000 000 000 000 000 000 000 000 000 000 000 000 000 000 000 000 000 000
007 008 016 000 000 000 000 000 000 000 000 000 000 000 000 000 000 000 000 000 000 000 000 000 000 000 000 000 000 000 000 000
010 013 000 000 000 000 000 000 000 000 000 000 000 000 000 000 000 000 000 000 000 000 000 000 000 000 000 000 000 000 000 000
007 008 000 000 000 000 000 000 131 132 000 000 131 132 000 000 131 132 000 000 131 132 000 000 131 132 000 000 131 132 000 000
010 013 000 000 000 000 000 000 133 134 000 000 133 134 000 000 133 134 000 000 133 134 000 000 133 134 000 000 133 134 000 000
012 008 007 010 013 000 000 000 133 135 000 000 133 134 000 000 133 134 000 000 133 134 000 000 133 134 000 000 133 135 000 000
010 009 010 009 010 013 000 000 135 134 000 000 133 134 000 000 133 135 000 000 133 134 000 000 133 134 000 000 133 134 000 000
007 008 014 015 014 015 014 015 014 015 014 015 014 015 014 015 014 014 015 000 133 134 000 014 015 015 014 015 014 015 014 015
010 013 000 000 000 000 000 000 000 000 000 000 000 000 000 000 000 000 000 000 133 134 000 000 000 000 000 000 000 000 000 000
007 008 000 000 000 000 000 000 133 134 000 000 133 134 000 000 133 135 000 000 133 134 000 000 133 135 000 000 133 134 000 000
010 013 000 000 000 000 000 000 133 134 000 000 135 134 000 000 133 134 000 000 133 134 000 000 133 134 000 000 133 134 000 000
007 008 000 000 000 000 000 000 133 134 000 000 133 135 000 000 133 134 000 000 133 134 000 000 133 134 000 000 133 135 000 000
010 013 000 000 000 000 000 000 133 134 000 000 133 134 000 000 133 134 000 000 133 135 000 000 133 134 000 000 133 135 000 000
000 000 000 000 000 000 000 000 133 134 000 000 133 134 000 000 133 134 000 000 133 134 000 000 133 134 000 000 135 134 000 000
000 000 000 000 000 000 000 000 000 000 000 000 000 000 000 000 000 000 000 000 000 000 000 000 000 000 000 000 000 000 000 000
000 000 000 000 000 000 000 000 000 000 000 000 000 000 000 000 000 000 000 000 000 000 000 000 000 000 000 000 000 000 000 000
000 000 000 000 000 000 000 000 000 000 000 000 000 000 000 000 000 000 000 000 000 000 000 000 000 000 000 000 000 000 000 000
007 008 000 000 000 000 000 000 000 000 128 000 000 000 128 000 000 000 128 000 000 000 000 000 000 000 128 000 000 000 000 000
008 013 000 000 000 000 126 127 000 000 129 130 000 000 129 130 000 000 129 130 000 000 126 127 000 000 129 130 000 000 000 000
007 008 007 008 007 008 007 008 007 008 007 008 007 008 007 008 007 008 007 008 007 008 007 008 007 008 007 008 007 008 007 008
010 009 010 009 010 009 013 012 009 010 009 010 009 010 009 010 009 010 009 010 009 010 009 010 009 010 009 010 009 010 009 010
-1-3-                                                                                                                          
007 008 007 008 007 008 007 008 007 008 007 008 007 008 007 008 007 008 007 008 007 008 007 008 007 008 007 008 007 008 007 008
000 000 000 000 000 000 000 000 000 000 000 000 000 000 000 000 000 000 000 000 000 000 000 000 000 000 000 000 000 000 013 009
000 000 000 000 000 000 000 000 000 000 000 000 000 000 000 000 000 000 000 000 000 000 000 000 000 000 000 000 000 000 007 008
000 000 000 000 000 000 000 000 000 000 000 000 000 000 000 000 000 000 000 000 000 000 000 000 000 000 000 000 000 000 013 012
131 132 000 000 131 132 000 000 000 000 000 000 000 000 000 000 000 201 000 000 000 000 000 000 000 000 000 000 000 000 007 008
133 134 000 000 133 134 000 000 000 000 000 000 000 000 000 000 000 000 000 000 000 000 000 000 000 000 000 000 000 000 013 009
133 135 000 000 133 134 000 000 000 000 000 000 000 000 000 000 000 000 000 000 000 000 000 000 000 000 000 000 000 000 007 008
133 134 000 000 133 135 000 000 000 000 000 000 000 000 000 000 000 000 000 000 000 000 000 000 000 000 000 000 000 000 013 009
014 015 014 015 014 015 014 015 000 000 000 000 000 000 000 000 000 000 000 000 000 000 000 000 000 000 000 000 000 000 012 008
000 000 000 000 000 000 000 000 000 000 000 000 000 000 000 000 000 000 000 000 000 000 000 000 000 000 000 000 000 000 013 009
135 134 000 000 135 135 000 000 000 000 000 000 000 000 000 000 000 000 000 000 000 000 000 000 000 000 000 000 000 000 007 008
133 134 000 000 133 135 000 000 014 015 000 000 000 000 000 000 000 000 000 000 000 000 000 000 000 000 000 000 000 000 013 009
133 134 000 000 133 134 000 000 000 000 000 000 000 000 000 000 000 000 000 000 000 000 000 000 000 000 000 000 000 000 007 008
133 134 000 000 135 134 000 000 000 000 000 000 000 000 000 000 000 000 000 000 000 000 000 000 000 000 000 000 000 000 013 009
133 134 000 000 133 134 000 000 000 000 014 015 014 015 000 000 000 000 000 000 000 000 000 000 000 000 000 000 000 000 000 343
000 000 000 000 000 000 000 000 000 000 000 000 000 000 000 000 000 000 000 121 122 000 000 000 000 000 000 000 000 000 000 344
000 000 000 000 000 000 000 000 000 000 000 000 000 000 000 000 000 027 027 027 027 027 027 000 000 000 000 000 000 000 000 345
000 000 000 000 000 000 000 321 322 000 000 000 000 000 000 000 000 022 022 022 022 022 022 000 000 000 000 000 000 000 000 346
000 000 000 000 000 000 000 323 324 000 000 000 000 000 000 000 011 008 012 008 007 008 007 021 000 000 000 317 318 000 007 008
000 000 000 000 000 000 000 325 326 000 000 000 000 000 000 011 010 010 010 009 010 009 010 009 020 000 000 319 320 000 013 009
007 008 007 008 012 008 007 008 007 008 007 008 007 008 007 008 007 008 007 008 007 008 007 008 007 008 007 008 007 008 007 008
009 010 009 010 009 010 009 010 009 010 009 010 009 010 009 010 009 010 009 010 009 010 009 010 009 010 009 010 009 010 009 010
-1-4-                                                                                                                          
007 008 020 110 110 110 110 110 110 110 110 110 110 110 110 110 110 110 110 110 110 110 110 110 110 110 110 110 109 109 001 002
010 009 021 110 110 110 110 110 110 110 110 110 110 110 110 110 110 110 110 110 110 110 110 110 110 110 110 109 109 109 001 002
007 008 020 109 110 110 110 110 110 110 110 109 109 109 110 110 110 110 110 110 109 110 110 110 109 109 109 109 109 109 001 002
010 009 021 109 109 109 110 109 110 110 109 109 109 109 109 110 110 000 109 109 109 109 109 109 109 109 109 109 109 109 001 002
007 008 020 109 109 109 425 426 109 109 109 109 000 102 136 000 000 000 000 109 109 109 109 109 000 000 109 109 109 109 001 002
010 009 021 109 000 000 427 428 000 000 000 000 000 104 136 137 000 103 000 000 109 109 109 000 000 000 000 000 109 109 001 002
007 008 020 000 000 000 029 028 028 028 028 028 028 106 136 137 000 105 000 000 000 000 000 000 000 000 000 000 000 000 001 002
010 009 021 000 000 000 000 000 000 000 000 000 000 104 136 137 000 107 030 030 030 030 030 031 000 000 000 000 000 000 001 002
007 008 020 000 000 000 000 000 000 029 028 028 028 106 136 137 000 105 000 000 000 000 000 000 000 000 000 000 000 000 001 002
010 009 021 000 000 000 000 000 000 000 000 000 000 104 136 137 000 103 000 000 000 000 000 000 000 000 016 000 000 000 001 002
007 008 020 000 000 000 000 000 000 000 000 000 000 111 136 137 000 107 030 030 031 000 000 000 000 000 000 000 000 000 001 002
010 009 021 000 000 000 000 000 000 000 000 000 000 104 136 137 000 103 000 000 000 000 000 000 000 000 000 000 101 000 001 002
007 008 020 000 000 000 000 000 000 000 000 000 000 102 139 137 139 105 000 000 000 000 000 000 000 000 003 004 003 004 001 002
010 009 021 000 000 000 000 000 000 000 000 000 000 104 136 137 137 103 000 000 000 000 000 000 000 000 001 002 001 002 001 002
000 000 000 000 000 000 000 000 000 000 000 000 000 102 136 137 000 105 000 000 000 000 000 000 000 000 000 138 138 000 001 002
000 000 000 000 000 000 000 000 000 000 000 000 000 104 137 000 000 103 000 000 000 000 000 000 016 000 000 138 138 000 001 002
000 000 000 000 000 000 000 000 000 000 000 000 000 102 136 137 000 105 000 000 000 000 000 000 000 000 000 138 000 000 001 002
000 000 000 000 000 000 000 000 000 000 000 000 000 104 136 137 000 103 000 000 000 000 000 000 000 016 000 138 000 000 001 002
007 008 020 000 000 000 000 000 000 000 000 000 000 102 136 137 000 105 000 000 000 000 000 000 000 000 000 309 310 000 001 002
010 009 010 020 000 101 000 000 000 101 000 000 000 104 136 137 000 103 000 000 101 101 000 000 000 000 000 311 312 000 001 002
003 004 003 004 003 004 003 004 003 004 003 004 003 004 003 004 003 004 003 004 003 004 003 004 003 004 003 004 003 004 001 002
001 002 001 002 001 002 001 002 001 002 001 002 001 002 001 002 001 002 001 002 001 002 001 002 001 002 001 002 001 002 001 002
-2-0-                                                                                                                          
032 033 032 033 032 033 032 033 032 033 032 033 032 033 032 033 032 033 032 033 032 033 032 033 032 033 032 033 032 036 032 033
034 035 037 000 000 138 138 000 000 037 034 035 034 035 037 000 000 000 601 602 603 604 605 606 607 608 000 037 034 035 034 035
032 033 000 000 000 138 138 000 000 000 032 033 032 033 000 000 000 000 609 610 611 612 613 614 615 616 000 000 032 033 032 033
034 035 000 000 000 000 138 000 000 000 034 035 034 036 000 000 000 000 617 618 619 620 621 622 623 624 000 000 034 035 034 035
032 033 000 000 000 000 000 309 310 000 032 033 032 033 000 000 000 000 625 626 627 628 629 630 631 632 409 410 032 033 032 036
034 035 000 000 000 000 000 311 312 000 036 035 034 035 000 000 000 000 633 634 635 636 637 638 639 640 411 412 034 035 034 035
032 033 032 033 000 000 032 033 032 033 032 033 032 033 032 033 000 000 032 033 032 033 032 033 032 033 032 033 032 033 032 033
034 035 034 035 000 000 000 000 000 037 037 000 037 000 000 000 000 000 000 000 000 000 037 000 037 037 000 037 034 035 034 035
036 033 032 033 038 000 000 000 000 000 000 000 000 000 000 000 000 000 000 000 000 000 000 000 000 000 000 000 000 138 138 000
034 035 034 035 000 000 000 000 000 000 000 000 000 000 000 000 000 000 000 000 000 000 000 000 000 000 000 000 000 138 138 000
032 033 037 000 000 000 000 000 000 000 000 000 000 000 000 000 000 000 000 000 000 000 000 000 000 000 000 000 000 000 138 000
034 035 000 000 000 000 000 000 101 000 000 000 000 101 000 000 000 000 000 000 000 000 000 000 101 000 101 101 000 000 138 000
032 033 000 000 000 000 003 004 003 004 003 004 003 004 003 004 003 004 003 004 003 004 003 004 003 004 003 004 003 004 003 004
034 035 000 000 000 000 034 035 034 035 034 036 034 035 034 035 034 035 034 035 034 035 034 035 034 035 034 035 034 035 034 035
032 033 000 000 000 038 032 033 032 033 032 033 032 033 032 033 032 033 032 033 032 033 032 033 032 033 032 033 032 036 032 033
034 035 000 000 000 000 034 035 034 035 034 035 034 035 034 035 034 035 034 035 034 035 034 035 034 035 034 035 034 035 036 035
032 033 038 000 000 000 000 037 000 000 037 037 032 033 032 033 138 138 000 037 000 000 000 000 000 000 032 033 032 033 032 033
034 035 000 000 000 000 000 000 000 000 000 000 034 035 033 035 000 138 000 000 000 000 000 154 000 000 034 035 034 035 034 035
032 033 000 000 000 000 000 000 000 000 401 402 032 033 032 033 000 138 000 000 000 000 000 000 000 000 032 033 032 033 032 033
034 035 101 000 000 000 000 000 000 000 403 404 034 035 034 035 000 000 000 000 000 000 000 000 000 000 034 035 034 035 034 035
032 033 003 004 003 004 000 000 000 000 003 004 032 033 032 033 000 000 000 000 003 003 003 003 003 003 032 033 032 033 032 033
034 035 034 035 034 035 038 000 000 000 034 035 034 035 034 035 038 000 000 000 034 035 034 035 034 035 034 035 034 035 034 035
-2-1-                                                                                                                          
032 033 032 033 032 033 032 033 032 033 032 033 032 033 032 033 032 033 032 033 032 033 032 033 032 033 032 033 032 033 032 033
034 035 037 000 138 138 037 000 000 000 037 037 000 000 138 000 000 000 037 000 138 138 000 000 037 000 037 000 138 000 000 000
036 033 000 000 138 138 000 000 000 000 000 000 000 000 138 000 000 000 000 000 138 138 000 000 000 000 000 000 138 000 000 000
034 035 000 000 138 000 000 000 000 000 000 000 000 000 000 000 000 000 000 000 138 138 000 000 000 000 000 000 000 000 000 000
032 033 401 402 000 000 000 000 000 000 000 000 000 000 000 000 000 000 000 000 000 138 000 000 000 000 000 000 000 000 032 033
034 035 403 404 000 000 000 000 000 000 000 000 000 000 000 000 000 000 000 000 000 138 000 000 000 000 000 000 000 000 034 035
032 033 032 033 000 000 000 000 032 033 000 000 032 033 032 033 000 000 000 000 000 000 000 000 000 000 032 033 032 033 032 033
034 035 000 000 000 000 000 000 000 000 000 000 000 000 037 000 000 000 000 000 000 000 000 000 000 000 000 000 000 037 034 035
000 000 000 000 000 000 000 000 000 000 000 000 000 000 000 000 000 000 000 000 032 033 032 033 000 000 000 000 000 000 032 033
000 000 000 000 000 000 000 000 000 000 000 000 000 000 000 000 000 000 000 000 000 000 037 000 000 000 000 000 000 000 034 035
000 000 000 000 000 000 000 000 000 000 032 033 000 000 000 000 000 000 000 000 000 000 000 000 000 000 000 000 000 000 032 036
000 101 000 000 000 000 000 000 000 000 000 000 000 000 000 000 000 000 000 000 000 000 000 000 000 000 000 000 000 000 034 035
003 004 003 004 000 000 000 000 000 000 000 000 000 000 000 000 034 035 000 000 000 000 000 000 034 035 000 000 000 000 032 033
034 035 034 035 000 000 000 000 000 000 000 000 000 000 000 000 000 000 000 000 000 000 000 000 000 000 000 000 000 000 034 035
032 033 000 000 000 000 000 000 000 000 000 000 032 033 000 000 000 000 000 000 000 000 000 000 000 000 000 000 000 000 032 033
034 035 000 000 000 000 000 000 000 000 000 000 000 000 000 000 000 000 000 000 000 101 000 000 000 000 000 000 000 101 034 035
032 033 000 000 000 000 000 000 000 000 000 000 000 000 000 000 000 000 003 004 003 004 003 004 000 000 000 000 003 004 032 033
036 035 000 000 000 000 000 000 000 101 000 000 000 000 321 322 000 000 034 035 034 035 034 035 000 000 000 000 034 035 034 035
032 033 000 000 000 000 000 000 003 004 003 004 000 000 323 324 000 000 032 033 032 033 032 033 000 000 000 038 032 033 032 036
034 035 000 000 000 000 000 000 034 035 034 035 000 101 325 326 101 000 034 035 034 035 034 035 000 000 000 000 034 035 036 035
032 033 005 005 005 005 005 005 032 033 036 033 003 004 003 004 003 004 032 033 032 033 032 033 000 000 000 000 032 033 032 033
034 035 034 035 034 035 034 035 034 035 034 035 034 035 034 035 034 035 034 035 034 036 034 035 038 000 000 000 034 035 034 035
-2-2-                                                                                                                          
043 039 041 040 041 040 039 040 041 040 041 040 041 040 041 040 041 040 039 040 039 040 041 040 039 040 041 040 041 040 039 040
000 000 000 000 000 000 000 000 000 000 000 000 000 000 000 000 000 000 000 000 000 000 000 000 000 000 000 000 000 000 041 042
000 000 000 000 000 000 000 000 000 000 000 000 000 000 000 000 000 000 000 000 000 000 000 000 000 000 000 000 000 000 039 040
000 000 000 000 000 000 000 000 000 000 000 000 000 000 000 000 000 000 000 000 000 000 000 000 000 000 000 000 000 000 041 042
039 040 039 040 039 040 000 000 039 040 039 040 039 040 000 000 000 000 000 000 000 000 000 000 000 000 000 000 000 000 039 040
041 042 000 000 000 000 000 000 000 000 000 000 000 000 000 000 000 000 000 000 000 000 000 000 000 000 000 000 000 000 041 042
039 040 000 000 000 000 000 000 000 000 000 000 000 000 000 000 401 402 000 000 000 000 000 000 000 000 000 000 000 000 000 000
041 043 000 000 000 000 000 000 321 322 000 000 000 000 000 000 403 404 000 000 000 000 000 000 000 000 000 000 000 000 000 000
039 040 000 000 000 000 000 000 323 324 000 000 000 000 000 000 039 040 000 000 000 000 000 000 000 000 000 000 000 000 000 000
041 042 000 000 000 000 000 000 325 326 000 000 000 000 000 000 000 000 000 000 000 000 000 000 000 000 000 000 000 000 000 000
039 040 000 000 000 000 039 040 039 040 039 040 000 000 000 000 000 000 000 000 000 000 000 000 000 000 000 000 039 040 039 040
043 042 000 000 000 000 041 042 073 074 041 042 000 000 000 000 000 000 000 000 000 000 000 000 000 000 000 000 041 042 043 042
039 040 000 038 000 000 039 040 039 040 039 040 039 040 039 040 043 040 039 040 000 000 000 000 039 040 039 040 039 040 039 043
041 042 000 000 000 000 041 042 041 042 041 042 041 043 041 042 041 042 041 042 000 000 000 000 041 042 043 042 041 042 041 042
039 040 038 000 000 000 000 000 000 000 000 000 000 000 000 000 000 000 000 000 000 000 000 000 000 000 000 000 000 000 039 040
041 042 000 000 000 000 000 000 000 000 000 000 000 000 000 000 000 000 000 000 000 000 000 000 000 000 000 000 000 000 041 042
039 040 039 040 000 000 000 000 000 000 000 000 000 000 000 000 000 000 000 000 000 000 000 000 000 000 000 000 000 000 039 040
142 143 041 042 000 000 000 000 000 000 000 000 000 000 000 000 000 000 000 000 000 000 000 000 000 000 000 000 000 000 000 000
144 145 039 040 000 000 000 000 000 000 317 318 000 000 000 000 000 000 000 000 000 000 000 000 000 000 000 000 000 000 000 000
146 147 043 042 000 000 000 000 000 000 319 320 000 000 000 000 000 000 000 000 000 000 000 000 000 000 000 000 000 000 000 000
039 040 039 040 039 040 043 040 039 040 039 040 039 040 039 040 039 040 039 040 039 040 043 040 039 040 000 000 000 000 039 040
041 042 041 042 041 042 041 042 041 042 041 042 041 042 041 042 041 042 041 043 043 042 041 042 041 042 000 000 000 038 041 042
-2-3-                                                                                                                          
039 040 039 040 039 040 039 040 039 040 039 040 039 040 039 040 039 040 039 040 043 043 039 040 039 040 000 000 039 040 039 040
041 042 041 042 000 074 073 000 043 042 041 042 000 075 000 042 041 042 041 042 041 042 041 042 041 042 000 000 041 042 041 042
039 040 039 040 039 040 039 040 039 040 039 040 039 040 039 040 039 040 039 040 039 040 039 040 039 040 038 000 039 040 043 040
041 042 041 042 041 042 041 042 041 042 000 073 000 043 041 042 041 042 041 042 041 042 041 042 041 042 000 000 041 042 041 042
039 040 039 040 039 040 039 040 039 040 039 040 039 040 039 040 039 040 039 040 039 040 039 040 039 040 000 000 039 040 039 040
041 042 041 042 041 042 041 042 041 042 041 042 041 042 041 042 041 042 041 042 041 042 041 042 041 042 000 038 041 042 041 042
000 000 000 000 000 000 000 000 000 000 000 000 000 000 000 000 000 000 000 000 000 000 000 000 000 000 000 000 000 000 039 040
000 000 000 000 000 000 000 000 000 000 000 000 000 000 000 000 000 000 000 000 000 000 000 000 000 000 000 000 000 000 041 042
000 000 000 000 000 000 000 000 000 000 000 000 000 000 000 000 000 000 000 000 000 000 000 000 000 000 038 000 000 000 000 000
000 000 000 000 000 000 000 000 000 000 000 000 000 000 000 000 000 000 000 000 000 000 000 000 000 000 000 000 000 000 000 000
039 040 039 040 039 040 000 000 000 000 000 000 000 000 000 000 000 000 000 000 000 000 000 000 000 000 000 000 000 000 000 000
041 042 041 042 041 042 000 000 000 000 000 000 000 000 000 000 000 000 000 000 000 000 000 000 000 000 000 038 000 000 000 000
039 040 039 040 039 040 038 000 000 000 000 000 000 000 000 000 000 000 000 000 000 000 000 000 000 000 000 000 000 000 039 040
041 042 041 042 041 042 000 000 000 000 000 000 000 000 000 000 000 000 000 000 000 000 000 000 000 000 000 000 000 000 041 042
039 040 039 043 039 040 000 038 000 000 039 040 039 040 039 040 039 040 039 040 039 040 039 040 039 040 039 040 039 040 039 040
041 042 041 042 041 042 000 000 000 000 000 000 000 000 000 000 000 000 000 000 041 042 041 042 041 042 041 042 041 042 041 042
039 040 043 040 039 040 038 000 000 000 000 000 000 000 000 000 000 000 000 000 039 040 142 143 142 143 142 143 142 143 039 040
000 000 000 000 000 000 000 000 000 000 000 000 000 000 000 000 000 000 000 000 041 042 144 145 144 145 144 145 144 145 041 042
000 000 000 000 000 000 000 038 000 000 000 000 000 000 000 000 000 000 409 410 043 040 146 147 146 147 146 147 146 147 039 040
000 000 000 000 000 000 000 000 000 000 000 000 000 000 000 000 000 000 411 412 041 042 041 042 041 042 041 042 041 042 041 042
039 040 039 040 039 040 039 040 039 043 039 040 039 040 039 040 039 040 039 040 039 040 039 040 039 040 039 040 039 040 039 040
041 042 041 042 041 042 041 042 041 042 041 042 041 042 043 042 041 042 041 042 041 042 041 042 041 042 041 043 041 042 041 042
-2-4-                                                                                                                          
032 033 034 035 034 035 034 035 034 035 034 035 034 035 034 035 034 035 034 035 034 035 034 035 034 035 034 035 034 035 032 033
034 035 000 138 138 037 000 037 000 000 000 000 000 000 000 000 000 037 000 000 000 037 000 000 000 138 138 037 000 037 034 035
032 033 000 138 138 000 000 000 000 000 000 000 000 000 000 000 000 000 000 000 000 000 000 000 000 138 138 000 000 000 032 033
034 035 000 138 138 000 000 000 000 000 000 000 000 000 000 000 000 000 000 000 000 000 000 000 000 000 138 000 000 000 034 035
032 033 000 138 000 000 000 000 000 409 410 000 000 000 000 000 000 000 000 000 000 000 000 000 000 000 138 000 000 000 032 033
034 035 000 138 000 000 000 000 000 411 412 000 000 000 000 000 000 000 000 000 000 000 000 000 000 000 138 000 000 000 034 035
032 033 000 138 000 000 000 000 032 033 032 033 000 000 032 033 032 033 032 033 032 033 032 033 000 000 000 000 000 000 032 033
034 035 000 000 000 000 000 000 000 000 037 000 000 000 000 138 138 000 000 000 037 000 000 000 000 000 000 000 000 000 034 035
000 000 000 000 000 000 000 000 000 000 000 000 000 000 000 138 138 000 000 000 000 000 000 000 000 000 000 032 033 032 032 033
000 000 000 000 000 000 000 000 000 000 000 000 000 000 000 000 138 000 000 000 000 000 000 000 000 000 000 000 000 000 034 035
000 000 000 000 000 000 000 000 000 000 000 000 000 000 000 000 000 000 000 317 318 000 000 000 000 000 000 000 000 000 032 033
000 000 000 101 000 000 000 000 000 000 000 000 000 000 000 000 000 000 000 319 320 000 000 000 000 000 000 000 000 000 034 035
003 004 003 004 003 004 000 000 000 000 000 000 000 000 000 000 000 000 032 033 032 033 000 000 032 033 032 033 000 000 032 033
034 035 034 035 034 035 000 000 000 000 000 000 000 000 000 000 000 000 000 000 000 000 000 000 000 000 037 000 000 000 034 035
032 033 032 033 032 033 000 000 000 000 000 000 000 000 000 000 000 000 000 000 000 000 000 000 000 000 000 000 000 000 032 033
034 035 034 035 034 035 000 000 000 000 000 000 000 000 000 000 000 000 000 000 000 000 000 000 000 000 000 000 000 000 034 035
032 033 032 033 032 033 000 000 000 000 000 000 000 000 032 033 032 033 000 000 000 000 000 000 000 000 000 000 000 000 032 033
034 035 034 035 034 035 000 000 321 322 000 000 000 000 000 000 000 037 000 000 000 000 000 000 000 000 000 000 000 000 034 035
032 033 032 033 032 033 000 000 323 324 000 000 000 000 000 000 000 000 000 000 000 000 000 000 000 000 000 000 000 000 032 033
034 035 034 035 034 035 000 101 325 326 101 000 000 000 000 000 000 000 000 000 101 000 000 000 000 000 000 000 101 000 034 035
032 033 032 033 032 033 003 004 003 004 003 004 003 004 003 004 003 004 003 004 003 004 003 004 000 000 000 000 003 004 032 033
034 035 034 035 034 035 034 035 034 035 034 035 034 035 034 035 034 035 034 035 034 035 034 035 016 000 000 000 034 035 034 035
-3-0-                                                                                                                          
032 033 032 033 032 033 000 000 000 000 032 033 032 033 032 033 000 000 000 000 032 033 032 033 032 033 032 033 032 033 032 033
044 044 044 044 044 044 000 000 000 000 034 035 034 035 034 035 000 000 000 000 044 044 044 044 044 044 044 044 044 044 044 044
044 044 044 044 044 044 038 000 000 000 032 033 032 033 032 033 038 000 000 000 044 044 044 044 044 044 044 044 044 044 044 044
034 035 036 035 034 035 000 000 000 000 034 035 034 036 034 035 000 000 000 000 034 035 034 035 034 035 034 035 034 035 034 035
032 036 032 033 032 033 000 000 000 000 000 000 000 037 037 000 000 038 000 000 000 037 000 037 000 000 000 000 000 037 032 033
034 035 034 035 034 035 000 000 000 000 000 000 000 000 000 000 000 000 000 000 000 000 000 000 000 000 000 000 000 000 034 075
032 033 032 033 032 033 038 000 000 000 000 000 000 000 000 000 000 000 038 000 000 000 000 000 000 000 000 000 000 000 032 033
044 044 044 044 044 044 000 000 000 000 000 000 000 000 000 000 000 000 000 000 000 321 322 000 000 000 000 000 000 000 036 035
044 044 044 044 044 044 000 000 000 000 000 000 000 000 000 000 000 000 000 000 000 323 324 000 000 000 000 000 425 426 032 033
034 035 034 035 034 035 000 000 000 000 000 000 000 000 000 000 000 000 000 000 000 325 326 000 000 000 000 000 427 428 034 035
032 033 032 033 032 033 000 000 000 000 032 033 032 033 032 033 000 000 000 000 032 033 032 033 000 000 000 000 032 033 032 033
034 036 037 000 000 000 000 000 000 000 000 000 000 000 037 000 000 000 000 000 000 000 037 000 000 000 000 000 000 000 034 035
032 033 000 000 000 000 000 000 000 000 000 000 000 000 000 000 000 000 000 000 000 000 000 000 000 000 000 000 000 000 000 000
034 035 000 000 000 000 000 000 000 000 000 000 000 000 000 000 000 000 000 000 000 000 000 000 000 000 000 000 000 000 000 000
032 033 000 401 402 000 000 000 000 000 000 000 000 000 000 000 000 000 000 000 000 000 000 000 032 033 000 000 000 000 000 000
034 035 000 403 404 000 000 000 000 000 000 000 000 000 000 000 000 000 000 000 000 000 000 000 000 000 000 000 000 000 000 000
032 033 032 036 032 033 000 000 000 000 032 033 032 033 000 000 000 000 000 000 000 000 000 000 000 000 000 000 000 000 032 036
034 035 034 035 034 035 038 000 000 000 034 035 034 035 000 000 000 000 000 000 000 000 000 000 000 000 000 000 000 000 034 035
044 044 044 044 044 044 000 000 000 000 044 044 044 044 044 000 000 000 000 000 000 000 000 000 000 000 023 024 000 000 032 033
044 044 044 044 044 044 000 000 000 000 044 044 044 044 044 044 000 000 000 000 000 000 000 000 000 000 025 026 000 000 034 035
032 033 032 033 032 033 000 000 000 000 032 033 032 033 032 033 032 033 032 033 032 033 032 036 032 033 032 033 032 033 032 033
034 035 034 035 034 035 038 000 000 000 034 035 034 035 034 035 034 074 073 036 034 035 034 035 034 035 034 035 034 035 034 035
-3-1-                                                                                                                          
032 033 032 033 032 033 032 033 032 033 032 033 032 033 032 033 032 033 032 033 032 033 032 033 000 000 000 000 032 033 032 033
034 035 034 035 034 035 037 000 000 000 000 138 000 138 000 000 000 000 000 000 138 000 000 000 000 000 000 000 000 037 034 035
032 033 032 033 032 033 000 000 000 000 000 138 000 138 000 000 000 000 000 000 138 000 000 000 000 000 000 000 000 000 032 033
034 035 034 035 034 035 000 000 000 000 000 138 000 138 000 000 000 000 000 000 138 000 000 000 000 000 032 033 000 000 034 035
032 033 000 000 000 000 000 000 000 000 000 138 000 000 000 000 000 000 000 000 000 000 000 000 000 000 000 000 000 000 032 033
034 035 000 000 000 000 000 000 000 000 000 138 000 000 000 000 000 000 000 000 000 000 317 318 000 000 000 000 000 000 034 035
032 033 409 410 000 000 000 000 000 000 000 138 000 000 000 000 000 000 000 000 000 000 319 320 000 000 000 000 000 000 032 033
034 035 411 412 000 000 000 000 000 000 000 138 000 000 000 000 000 032 033 000 032 033 032 033 032 033 000 000 000 000 034 035
032 033 003 004 003 004 000 000 000 000 000 000 000 000 000 000 000 000 000 000 000 000 000 000 037 000 000 000 000 000 032 033
034 035 034 035 034 035 000 000 000 000 000 000 000 000 000 000 000 000 000 000 000 000 000 000 000 000 000 000 000 000 034 035
032 033 032 033 032 033 000 000 000 000 000 000 000 000 000 000 000 000 000 000 000 000 000 000 000 000 000 000 032 033 032 033
034 035 034 035 034 035 000 000 000 000 000 000 000 000 000 000 000 000 000 000 000 000 000 000 000 000 000 000 000 037 034 035
000 037 000 000 000 000 000 000 000 000 000 000 000 000 000 000 000 000 000 000 000 000 000 000 000 000 000 000 000 000 032 033
000 000 000 000 000 000 000 000 000 000 000 000 000 000 000 000 000 000 000 000 000 000 000 000 000 000 000 000 000 000 034 035
000 000 000 000 000 000 000 000 000 000 000 000 000 000 000 000 000 000 000 000 000 000 000 000 000 000 032 033 000 000 032 033
000 000 000 000 000 000 000 000 000 000 000 000 000 000 000 000 000 000 000 000 000 000 000 000 000 000 000 000 000 000 034 035
003 004 003 004 003 004 000 000 000 000 000 000 000 000 000 000 000 000 000 000 000 000 000 000 000 000 000 000 000 000 032 033
034 035 034 035 034 035 000 000 000 000 149 149 000 000 000 000 000 000 000 000 000 000 000 000 000 000 000 000 000 000 034 035
032 033 032 033 032 033 038 000 000 149 000 149 149 000 000 000 000 000 149 149 000 000 000 000 073 075 073 000 000 000 034 035
034 035 034 035 034 035 000 000 149 149 075 073 075 075 000 000 000 149 149 149 000 000 000 075 075 075 074 075 000 000 000 000
032 033 032 033 032 033 000 149 000 149 149 000 149 149 149 000 000 075 075 000 149 149 003 004 003 004 003 004 003 004 003 004
034 035 034 035 034 035 501 501 501 501 501 501 501 501 501 501 501 501 501 501 501 501 034 035 034 035 034 035 034 035 034 035
-3-2-                                                                                                                          
039 040 039 040 039 040 041 042 039 040 039 040 039 040 043 039 040 040 041 040 039 040 041 042 039 040 000 000 000 000 039 040
041 042 000 000 000 000 000 000 000 000 000 000 000 000 000 000 000 000 000 000 000 000 000 000 000 000 000 000 000 000 041 042
039 040 000 000 000 000 000 000 000 000 000 000 000 000 000 331 332 000 000 000 000 000 000 000 000 000 000 000 000 000 039 040
041 042 000 000 000 000 000 000 000 000 000 000 000 000 000 333 334 000 000 000 000 000 000 000 000 000 000 000 000 038 041 073
039 040 000 000 000 000 000 000 000 000 000 000 000 000 000 000 000 000 000 000 000 000 000 000 000 000 000 000 000 000 039 040
041 042 000 000 000 000 000 000 000 000 000 000 000 000 000 000 000 000 000 000 000 000 000 000 000 000 000 000 000 000 041 042
039 040 041 042 039 040 000 000 041 042 039 040 000 000 000 000 000 000 000 000 039 040 041 042 000 000 039 040 039 040 039 040
041 042 000 000 000 000 000 000 000 000 000 000 000 000 000 000 000 000 000 000 000 000 000 000 000 000 000 000 000 000 041 042
039 040 000 000 000 000 000 000 000 000 000 000 000 000 000 000 000 000 000 000 000 000 000 000 000 000 000 000 000 000 039 040
074 042 000 000 000 000 000 000 000 000 000 000 000 000 039 040 041 042 000 000 000 000 000 000 000 000 000 000 000 000 041 042
039 040 000 425 426 000 000 000 000 000 000 000 000 000 000 000 000 000 000 000 000 000 000 000 000 000 000 000 000 000 039 043
041 042 000 427 428 000 000 000 000 000 000 000 000 000 000 000 000 000 000 000 000 000 000 000 000 000 000 000 000 000 041 042
039 040 041 042 039 040 000 000 039 040 039 040 000 000 000 000 000 000 000 000 039 040 039 040 000 000 041 042 039 040 039 040
041 042 000 000 000 000 000 000 000 000 000 000 000 000 000 000 000 000 000 000 000 000 000 000 000 000 000 000 000 000 041 042
039 040 000 000 000 000 000 000 000 000 000 000 000 000 000 000 000 000 000 000 000 000 000 000 000 000 000 000 000 000 039 040
041 042 000 000 000 000 000 000 000 000 000 000 000 000 000 000 000 000 000 000 000 000 000 000 000 000 000 000 000 000 041 042
039 040 000 000 000 000 000 000 000 000 000 000 000 000 046 047 048 049 000 000 000 000 000 000 000 000 000 000 000 000 039 040
041 042 000 000 000 000 000 000 000 000 000 000 000 000 050 051 052 053 000 000 000 000 000 000 000 000 000 000 000 000 043 042
043 040 000 401 402 000 046 047 048 049 000 000 000 039 040 039 040 039 040 000 000 000 046 047 048 049 000 000 409 410 039 040
000 000 000 403 404 000 050 051 052 053 000 000 039 041 042 041 042 041 042 039 000 000 050 051 052 053 000 000 411 412 041 042
039 040 039 040 039 040 039 040 039 040 039 040 039 040 039 040 039 040 073 040 039 040 039 040 039 040 039 040 043 040 039 040
041 042 041 043 041 042 041 042 041 042 041 042 074 042 041 042 041 042 041 042 041 042 043 042 041 042 041 042 042 042 041 042
-3-3-                                                                                                                          
075 055 075 054 075 075 054 075 075 075 075 075 054 075 075 054 075 054 075 075 075 075 054 075 075 075 054 054 075 075 075 055
054 056 000 000 000 000 000 000 000 000 000 000 000 000 000 000 000 000 000 000 000 000 000 000 000 000 000 000 000 000 054 075
075 055 000 000 000 000 000 000 000 000 000 000 000 000 000 000 000 000 000 000 000 000 000 000 000 000 000 000 000 000 074 055
075 056 000 000 000 000 000 000 000 000 000 000 000 000 000 000 000 000 000 000 000 000 000 000 000 000 000 000 000 000 054 056
075 074 000 000 000 000 000 000 000 000 000 000 000 000 000 000 000 000 000 000 000 000 000 000 000 000 000 000 000 000 075 055
054 056 000 409 410 000 000 000 000 000 000 000 000 000 000 000 000 000 000 000 000 000 000 000 000 000 000 000 000 000 054 056
075 055 000 411 412 000 000 000 000 075 000 000 000 000 000 000 000 000 000 000 000 000 000 000 000 000 000 000 000 000 075 055
054 056 075 073 075 075 000 000 000 000 000 000 075 073 000 000 000 075 000 000 000 073 075 000 000 000 000 000 000 000 054 056
075 055 000 000 000 000 000 000 000 000 000 000 000 000 000 000 000 000 000 000 000 000 000 000 000 000 000 073 000 000 075 055
074 056 000 000 000 000 000 000 000 000 000 000 000 000 000 000 000 000 000 000 000 000 000 000 000 000 000 000 000 000 054 056
075 055 000 000 000 000 000 000 000 000 000 000 000 000 000 000 000 000 000 000 000 000 000 000 000 000 000 000 000 000 075 055
054 056 000 000 000 000 000 000 000 000 000 000 000 000 000 401 402 000 000 000 000 000 000 000 000 000 000 000 000 075 074 056
075 074 000 000 000 000 000 000 000 075 075 073 075 000 000 403 404 000 000 000 000 000 000 000 000 000 000 000 000 000 075 055
075 056 000 000 000 000 000 000 000 000 000 000 000 000 000 075 075 000 000 000 073 075 075 000 000 000 000 000 000 000 054 056
075 055 000 000 000 000 000 000 000 000 000 000 000 000 000 000 000 000 000 000 000 000 000 000 000 000 073 075 000 000 075 055
054 056 000 000 000 000 075 075 000 000 000 000 000 000 000 000 000 000 000 000 000 000 000 000 000 000 000 000 000 000 054 056
075 055 000 000 000 000 000 000 000 000 000 000 000 000 000 000 000 000 000 000 000 000 000 000 000 000 000 000 000 000 000 000
054 056 075 075 000 000 000 000 000 000 000 000 000 000 000 000 000 000 000 149 149 000 000 000 000 000 000 000 000 000 000 000
074 055 000 000 000 149 149 149 000 000 000 000 000 000 000 000 000 000 149 149 000 149 000 000 000 000 000 149 149 000 000 000
054 056 000 000 149 149 149 000 149 000 000 000 149 000 000 149 149 000 149 149 149 149 000 000 000 000 149 000 149 149 149 000
075 055 075 055 075 055 075 055 075 055 000 149 075 055 149 149 149 075 149 149 075 055 149 000 075 000 075 055 075 055 075 073
074 056 054 056 054 056 074 056 054 056 005 005 054 056 005 005 005 005 005 005 054 056 005 005 005 005 054 056 074 056 054 056
-3-4-                                                                                                                          
032 033 034 035 034 035 034 035 034 035 034 035 034 035 034 035 034 035 034 035 034 035 034 035 000 000 000 000 032 033 032 033
034 035 000 000 000 000 000 000 000 037 000 138 138 000 138 000 000 000 000 000 037 000 000 000 000 000 000 000 000 037 034 035
032 036 000 409 410 000 000 000 000 000 000 138 138 000 138 000 000 000 000 000 000 000 000 000 000 000 032 033 000 000 032 033
034 035 000 411 412 000 000 000 000 000 000 000 138 000 000 000 000 000 000 000 000 000 000 000 000 000 000 000 000 000 034 073
032 033 032 033 032 033 000 000 000 000 000 000 138 000 000 000 000 000 000 000 000 000 000 000 032 033 000 000 000 000 032 033
034 035 037 000 000 000 000 000 000 000 000 000 000 000 000 000 000 000 000 000 000 000 000 000 000 000 000 000 000 000 034 035
032 033 000 000 000 000 032 033 000 000 000 000 000 000 000 000 000 000 032 033 032 033 000 000 000 000 000 000 032 033 032 033
034 035 000 000 000 000 000 000 000 000 000 000 000 000 000 000 000 000 000 138 138 000 000 000 000 000 000 000 000 037 034 035
032 033 000 000 000 000 000 000 032 033 000 000 000 000 032 033 032 033 000 138 138 000 000 000 000 401 402 000 000 000 032 033
034 035 000 000 000 000 000 000 000 000 000 000 000 000 000 000 037 000 000 000 138 000 000 000 000 403 404 000 000 000 034 035
032 033 000 000 000 000 000 000 000 000 000 000 000 000 000 000 000 000 000 000 138 000 000 000 032 033 032 033 000 000 032 033
034 036 000 000 000 000 000 000 321 322 000 000 000 000 000 000 000 000 000 000 000 000 000 000 000 000 000 000 000 000 034 036
032 033 000 000 000 000 000 000 323 324 000 000 000 000 000 000 000 000 000 000 000 000 000 000 000 000 000 000 000 000 032 033
034 035 000 000 000 000 000 000 325 326 000 000 000 000 000 000 000 000 000 000 000 000 000 000 000 000 000 000 000 000 034 035
032 033 000 000 000 000 032 033 032 033 032 033 000 000 000 000 000 000 000 000 000 000 000 000 000 000 000 000 032 033 032 033
034 035 000 000 000 000 034 035 034 035 034 036 000 000 000 000 000 000 000 000 000 154 000 000 000 000 000 000 000 000 034 035
347 000 000 000 000 032 032 033 032 033 032 033 000 000 000 000 000 000 000 000 000 000 000 000 000 000 000 000 000 000 032 033
348 000 000 000 000 000 073 035 034 035 034 035 000 000 000 000 000 000 000 000 000 000 000 000 000 000 000 000 000 000 034 035
349 000 000 000 000 000 032 033 032 033 032 033 032 033 000 000 000 000 000 000 032 032 032 033 000 000 032 033 000 000 032 033
350 000 000 000 000 000 034 036 034 035 034 035 034 035 000 000 000 075 000 000 000 000 037 000 000 000 000 000 000 000 034 036
032 033 032 033 032 033 032 033 032 033 032 033 032 033 000 000 000 000 000 000 000 000 000 000 000 000 000 000 000 000 032 033
034 035 034 035 034 035 034 035 034 073 074 035 034 035 501 501 501 501 501 501 501 501 501 501 501 501 501 501 501 501 034 035
-4-0-                                                                                                                          
032 033 032 033 032 033 000 000 000 000 032 033 032 033 032 033 032 033 032 033 032 033 032 033 032 033 032 033 032 033 032 033
034 035 037 000 000 000 000 000 000 000 000 000 037 000 000 000 000 000 000 000 000 000 000 000 037 000 037 000 000 066 065 064
032 033 000 000 000 000 032 033 000 000 000 000 000 000 000 000 000 000 000 000 000 000 000 000 000 000 000 000 000 061 062 063
034 035 000 000 000 000 000 000 000 000 000 000 000 000 000 000 000 000 000 000 000 000 000 000 000 000 000 000 000 066 065 064
032 033 000 000 000 000 000 000 000 000 000 000 000 000 000 000 000 000 000 000 000 000 000 000 000 000 000 000 000 061 062 063
034 035 000 000 000 000 000 000 000 000 000 000 000 000 000 000 000 000 000 000 000 000 000 000 000 000 000 000 000 066 065 064
032 033 000 000 000 000 000 000 000 000 032 033 000 000 000 000 000 000 000 000 000 000 000 000 309 310 000 000 000 061 062 063
034 035 000 000 000 000 000 000 000 000 000 000 000 000 000 000 000 000 000 000 000 000 000 000 311 312 000 000 000 066 065 064
032 033 000 000 000 000 000 000 000 000 000 000 000 000 000 099 099 099 099 099 099 000 000 061 062 063 071 000 000 061 062 063
034 035 000 000 000 000 032 033 032 033 000 000 000 000 000 000 000 000 000 000 000 000 000 066 065 064 072 000 000 066 065 064
032 033 000 000 000 000 000 000 037 000 000 000 000 000 000 000 000 000 000 000 000 000 000 000 000 000 000 000 000 061 062 063
034 035 000 000 000 000 000 000 000 000 000 000 000 000 000 000 000 000 000 000 000 000 000 000 000 000 000 000 000 066 065 064
032 033 032 033 000 000 000 000 000 000 000 000 000 000 000 000 000 000 000 000 000 000 000 000 000 000 000 000 000 061 062 063
034 035 000 000 000 000 000 000 000 000 000 000 000 000 000 000 000 000 000 000 000 000 000 000 000 000 000 000 000 066 065 064
032 033 000 000 000 000 000 000 000 000 000 000 000 000 000 000 000 000 000 000 000 000 000 000 000 000 000 000 000 000 000 343
034 035 000 000 000 000 000 000 000 000 000 000 000 000 000 000 000 000 000 000 000 000 000 000 000 000 000 000 000 000 000 344
032 033 000 149 000 000 032 033 073 000 000 000 000 000 000 000 000 000 000 000 000 000 000 000 149 000 000 000 000 000 000 345
034 035 000 149 149 149 034 035 075 075 000 000 000 000 000 000 000 000 000 000 000 000 000 149 149 000 000 000 000 000 000 346
032 033 073 149 149 149 075 033 032 033 000 000 149 000 000 000 000 000 000 000 000 000 075 073 000 149 149 000 000 061 062 063
034 035 075 075 149 149 034 035 034 035 000 149 149 000 000 000 000 000 000 149 073 075 074 075 075 149 149 000 061 062 065 064
032 033 032 033 032 033 032 033 032 033 032 033 032 033 032 033 032 033 019 019 019 019 019 019 019 019 019 019 032 033 032 033
034 035 034 035 034 035 034 035 034 035 034 035 034 035 034 035 034 035 000 000 000 000 000 000 000 000 000 000 034 035 034 035
-4-1-                                                                                                                          
062 063 062 063 062 063 062 063 062 063 062 063 062 063 062 063 062 063 062 063 062 063 062 063 062 063 062 063 062 063 062 063
065 068 000 000 000 000 000 000 000 000 000 000 000 000 000 000 000 000 000 000 000 000 000 000 000 000 000 000 000 000 065 064
062 063 000 000 000 000 000 000 000 000 000 000 000 000 000 000 000 000 000 000 000 000 000 000 000 000 000 000 000 000 062 063
065 068 000 000 000 000 000 000 000 000 000 000 000 000 000 000 000 000 000 000 000 000 000 000 000 000 000 000 000 000 065 064
062 063 000 000 000 000 000 150 150 000 000 000 000 000 000 151 150 000 000 000 000 000 000 150 151 000 000 000 000 000 062 063
065 068 000 000 000 000 000 150 150 000 000 000 000 000 000 150 150 000 000 321 322 000 000 150 151 000 000 000 000 000 065 064
062 063 000 317 318 000 000 150 150 000 000 000 000 000 000 150 150 000 000 323 324 000 000 150 150 000 000 000 000 000 062 063
065 068 000 319 320 000 000 150 151 000 000 000 000 000 000 150 151 000 000 325 326 000 000 151 150 000 000 000 000 000 065 064
062 063 069 070 069 070 069 070 069 070 069 070 069 070 000 151 151 000 069 070 069 070 000 150 150 000 069 000 000 000 062 063
065 068 000 000 000 000 000 000 000 000 000 000 000 000 000 151 150 000 000 000 000 000 000 150 151 000 000 000 000 000 065 064
062 063 000 000 000 000 000 150 150 000 000 000 000 000 000 150 150 000 000 000 000 000 000 150 150 000 000 000 000 000 062 063
065 068 000 000 000 151 150 151 150 151 150 000 000 150 150 150 150 151 150 000 000 150 150 151 150 150 150 000 000 069 065 064
062 063 000 000 000 150 150 150 150 150 151 000 000 150 150 151 151 150 150 000 000 151 150 150 150 150 151 000 000 000 062 063
065 068 000 000 000 000 000 150 150 000 000 000 000 000 000 150 150 000 000 000 000 000 000 150 150 000 000 000 000 000 065 064
000 000 000 000 000 000 000 151 150 000 000 000 000 000 000 150 151 000 000 000 000 000 000 151 150 000 000 000 069 070 062 063
000 000 000 000 000 000 000 000 000 000 000 000 000 000 000 000 000 000 000 000 000 000 000 000 000 000 000 000 000 000 065 064
000 000 000 000 000 000 000 000 000 000 000 000 000 000 000 000 000 000 000 000 000 000 000 000 000 000 000 000 000 000 000 000
000 000 000 000 000 000 000 000 000 000 000 000 000 000 000 000 000 000 000 000 000 000 000 000 000 000 000 000 000 000 000 000
062 063 000 000 000 000 000 000 000 000 000 000 000 000 000 000 000 000 000 000 000 000 061 062 063 062 063 071 000 000 000 000
065 068 000 000 000 000 000 000 000 000 000 000 000 000 000 000 000 000 000 000 000 000 062 065 064 065 064 072 000 000 000 000
062 063 062 063 062 063 062 063 062 063 062 063 062 063 062 063 062 063 000 000 062 063 062 063 062 063 062 063 062 063 062 063
057 058 057 058 057 058 057 058 057 058 057 058 057 058 057 058 057 058 059 060 057 058 057 058 057 058 057 058 057 058 057 058
-4-2-                                                                                                                          
062 063 062 063 062 063 062 063 062 063 062 063 062 063 062 063 062 063 062 063 062 063 062 063 062 063 062 063 062 063 062 063
065 064 000 153 153 000 000 000 000 000 000 000 000 000 000 000 065 064 065 064 065 064 065 064 065 064 065 064 065 064 065 064
062 063 000 153 153 000 000 000 000 000 000 000 000 000 000 000 062 063 142 143 075 075 142 143 073 075 142 143 075 075 062 063
065 064 000 153 153 000 000 000 000 000 000 000 000 000 000 000 065 064 144 145 073 075 144 145 075 075 144 145 075 073 065 064
062 063 000 153 000 000 000 000 000 000 000 000 000 000 000 000 062 063 146 147 075 075 146 147 075 075 146 147 075 075 062 063
065 064 000 153 000 000 069 070 069 070 069 070 069 070 000 000 065 064 065 064 065 064 065 064 065 064 065 064 065 064 065 064
062 063 000 000 000 000 000 000 000 000 000 000 000 000 000 000 000 000 000 000 000 153 153 000 000 000 000 153 000 000 000 000
065 064 000 000 000 000 000 000 000 000 000 000 000 000 000 000 000 000 000 000 000 153 153 000 000 000 000 153 000 000 000 000
062 063 000 000 000 000 000 000 000 000 000 000 000 000 000 000 000 000 000 000 000 153 153 000 000 000 000 000 000 000 000 000
065 064 000 000 069 070 000 000 000 000 000 000 000 000 000 000 000 000 000 000 000 000 153 000 000 000 000 000 000 000 000 000
062 063 000 000 000 000 000 000 000 000 000 000 000 000 000 000 000 000 000 000 000 000 153 000 000 000 000 000 000 000 062 063
065 064 000 000 000 000 000 000 000 000 000 000 000 000 000 069 070 069 070 069 070 000 153 000 069 070 069 070 069 070 065 064
062 063 000 000 000 000 000 000 000 000 000 000 000 000 000 000 000 000 000 000 000 000 153 000 000 000 000 000 000 000 062 063
065 064 069 070 000 000 000 000 000 000 000 000 000 000 000 000 000 000 000 000 000 000 153 000 000 000 000 000 000 000 065 064
062 063 000 000 000 000 000 000 000 000 000 000 000 000 000 000 000 000 000 000 000 000 153 000 000 000 000 000 000 000 062 063
065 064 000 000 000 000 000 000 000 000 000 000 000 000 000 000 000 000 000 000 000 000 000 000 000 000 000 000 000 000 065 064
000 000 000 000 000 000 062 063 000 000 000 000 000 000 000 000 000 000 000 000 000 000 000 000 000 000 000 000 000 000 062 063
000 000 000 000 000 000 065 064 000 000 000 000 000 000 000 000 000 000 000 000 000 000 000 000 000 000 000 000 000 000 065 064
000 000 000 000 000 062 063 062 063 000 000 000 000 000 000 000 000 000 000 000 000 000 000 000 000 000 000 409 410 000 062 063
000 000 000 000 000 065 064 065 068 000 000 000 000 000 000 000 000 000 000 000 000 000 000 000 005 005 000 411 412 000 065 064
062 063 062 063 062 063 062 063 062 063 000 000 000 000 062 063 062 063 000 000 000 000 062 063 062 063 062 063 062 063 062 063
057 058 057 058 057 058 057 058 057 058 059 060 059 060 057 058 057 058 059 060 059 060 057 058 057 058 057 058 057 058 057 058
-4-3-                                                                                                                          
062 063 062 063 062 063 062 063 062 063 062 063 062 063 062 063 062 063 062 063 062 063 062 063 062 063 062 063 062 063 062 063
065 064 000 000 153 153 000 000 000 000 000 000 000 000 000 000 000 000 000 000 000 000 000 000 153 000 000 153 000 000 065 064
062 063 000 000 153 153 000 000 000 000 000 000 000 000 000 000 000 000 000 000 000 000 000 000 153 000 000 153 000 000 062 063
065 064 000 000 153 153 000 000 000 000 000 000 000 000 000 000 000 000 000 000 000 000 000 000 000 000 000 153 000 000 065 064
062 063 000 000 153 000 000 000 000 000 000 000 000 000 000 000 000 000 000 000 000 000 000 000 000 000 000 153 000 000 062 063
065 064 000 000 153 000 000 000 000 000 000 000 000 000 000 000 000 000 000 000 000 000 000 000 000 000 000 153 000 000 065 064
000 000 000 000 153 000 000 000 000 000 000 000 000 000 000 000 000 000 075 075 000 000 000 000 000 000 000 000 000 000 062 063
000 000 000 000 000 000 000 000 075 073 000 000 000 000 000 000 000 000 000 000 000 000 000 401 402 000 000 000 000 000 065 064
000 000 000 000 000 000 000 000 000 000 000 000 000 000 000 000 075 000 000 000 000 000 000 403 404 000 000 000 000 000 062 063
000 000 000 000 000 000 000 000 000 000 000 000 000 000 000 000 000 000 000 000 000 000 000 073 075 000 000 000 000 000 065 064
062 063 000 000 069 070 000 000 000 000 000 000 075 000 000 000 000 000 000 000 000 000 000 000 000 000 000 000 000 000 062 063
065 064 000 000 000 000 000 000 000 000 000 000 000 000 000 000 000 000 000 000 000 000 000 000 000 000 000 075 000 000 065 064
062 063 000 000 000 000 000 000 000 000 000 000 000 000 075 000 000 000 000 000 000 000 000 000 000 000 000 000 000 000 062 063
065 064 000 000 000 000 000 000 000 000 000 000 000 000 000 000 000 000 000 000 000 000 000 000 000 000 000 000 000 000 065 064
062 063 000 000 000 000 000 000 000 000 000 000 000 000 000 000 000 000 000 000 000 000 000 000 000 000 000 000 000 000 062 063
065 064 000 000 000 000 000 000 000 000 000 000 000 000 000 000 000 000 000 000 000 000 000 000 000 000 000 000 000 062 065 064
062 063 000 000 000 000 000 000 000 000 000 000 075 075 073 075 000 000 000 000 000 000 000 000 000 000 000 000 000 000 000 000
065 064 000 000 000 000 000 000 000 000 000 000 000 000 000 000 000 321 322 000 000 000 000 000 000 000 000 000 000 000 000 000
062 063 000 000 000 000 000 000 401 402 000 000 000 000 000 000 000 323 324 000 000 000 000 000 000 000 000 000 000 000 000 000
065 064 000 000 000 000 000 000 403 404 000 000 000 000 000 000 000 325 326 000 000 000 000 000 000 000 000 075 073 000 000 000
062 063 000 000 000 000 000 000 062 063 000 000 000 000 000 000 062 063 062 063 000 000 000 000 000 000 062 063 062 063 062 063
057 058 059 060 059 060 059 060 057 058 059 060 059 060 059 060 057 058 057 058 059 060 059 060 059 060 057 058 057 058 057 058
-4-4-                                                                                                                          
062 063 062 063 062 063 062 063 062 063 062 063 062 063 062 063 062 063 062 063 062 063 062 063 062 063 062 063 062 063 062 063
065 064 000 000 153 153 000 000 000 000 000 000 000 000 000 000 000 000 000 000 000 000 000 000 000 000 153 153 000 000 065 064
062 063 000 000 153 153 000 000 000 000 000 000 000 000 000 000 000 000 000 000 000 000 000 000 000 000 153 153 000 000 062 063
065 064 000 000 153 000 000 000 000 000 000 000 000 000 000 000 000 000 000 000 000 000 000 000 000 000 000 153 000 000 065 064
062 063 000 000 153 000 000 000 000 000 000 000 000 000 000 000 000 000 000 000 000 000 000 000 000 000 000 153 000 000 062 063
065 064 000 000 000 000 000 000 000 000 000 000 000 000 000 000 000 000 000 000 000 000 000 000 000 000 000 000 000 000 065 064
062 063 000 000 000 000 000 000 000 000 000 000 000 202 000 000 000 000 000 000 000 000 000 000 000 000 000 000 000 000 062 063
065 064 000 000 000 000 000 000 000 000 000 000 000 000 000 000 000 000 000 000 000 000 000 000 000 000 000 000 000 000 065 064
062 063 000 000 000 000 000 000 000 000 000 000 000 000 000 000 000 000 000 000 000 000 000 000 000 000 000 000 000 000 062 063
065 064 000 000 000 000 000 000 000 000 000 000 000 000 000 000 000 000 000 000 000 000 000 000 000 000 000 000 000 000 065 064
062 063 000 000 000 000 000 000 000 000 000 000 000 000 000 000 000 000 000 000 000 000 000 000 000 000 000 000 000 000 062 063
065 064 000 000 000 000 000 000 000 000 000 000 000 000 000 000 000 000 000 000 000 000 000 000 000 000 000 000 000 000 065 064
062 063 000 000 000 000 000 000 000 000 000 000 000 000 000 000 000 000 000 000 000 000 000 000 000 000 000 000 000 000 062 063
065 064 000 000 000 000 000 000 000 000 000 000 000 000 000 000 000 000 000 000 000 000 000 000 000 000 000 000 000 000 065 064
062 063 000 000 000 000 000 000 000 000 000 000 000 000 000 000 000 000 000 000 000 000 000 000 000 000 000 000 000 000 062 063
065 064 000 000 000 000 000 000 000 000 000 000 000 000 000 000 000 000 000 000 000 000 000 000 000 000 000 000 000 000 065 064
000 000 000 000 000 000 000 000 000 000 000 000 000 000 000 000 000 000 000 000 000 000 000 061 062 063 062 063 062 063 062 063
000 000 000 000 000 000 000 000 000 000 000 000 000 000 000 000 000 000 000 000 000 000 061 062 065 064 065 064 065 064 065 064
000 000 000 000 000 152 000 000 000 000 000 000 000 000 000 000 000 000 000 000 000 061 062 063 062 063 062 063 062 063 062 063
000 000 000 000 152 152 000 152 000 000 000 000 000 000 000 000 000 000 000 000 061 062 065 064 065 064 065 064 065 064 065 064
062 063 062 063 062 063 062 063 062 063 062 063 062 063 062 063 062 063 062 063 062 063 062 063 062 063 062 063 062 063 062 063
057 058 057 058 057 058 057 058 057 058 057 058 057 058 057 058 057 058 057 058 057 058 057 058 057 058 057 058 057 058 057 058
